<?xml version="1.0" encoding="utf-8"?>
<!-- Generator: Adobe Illustrator 21.1.0, SVG Export Plug-In . SVG Version: 6.00 Build 0)  -->
<svg version="1.1" id="Layer_1" xmlns="http://www.w3.org/2000/svg" xmlns:xlink="http://www.w3.org/1999/xlink" x="0px" y="0px"
	 viewBox="0 0 30 30" style="enable-background:new 0 0 30 30;" xml:space="preserve">
<style type="text/css">
	.st0{fill:#32BFEA;}
</style>
<g>
	<g>
		<path class="st0" d="M15,0C6.7,0,0,6.7,0,15s6.7,15,15,15s15-6.7,15-15S23.3,0,15,0z M15,27C8.4,27,3,21.6,3,15S8.4,3,15,3
			s12,5.4,12,12S21.6,27,15,27z M14.9,13.1c-1.1,0-2,0.9-2,2V22c0,1.1,0.9,2,2,2s2-0.9,2-2v-6.9C16.9,14,16,13.1,14.9,13.1z
			 M14.9,7.1c-1.1,0-2,0.9-2,2s0.9,2,2,2s2-0.9,2-2S16,7.1,14.9,7.1z"/>
	</g>
</g>
</svg>
